<?xml version="1.0" encoding="UTF-8"?>
<svg width="37px" height="30px" viewBox="0 0 37 30" version="1.1" xmlns="http://www.w3.org/2000/svg" xmlns:xlink="http://www.w3.org/1999/xlink">
    <!-- Generator: Sketch 41.2 (35397) - http://www.bohemiancoding.com/sketch -->
    <title>Page 1 Copy 4</title>
    <desc>Created with Sketch.</desc>
    <defs>
        <polygon id="path-1" points="6.35255387 5.85654853 0.219489933 5.85654853 0.219489933 0.0893943567 6.35255387 0.0893943567"></polygon>
        <polygon id="path-3" points="0 7.40712831 0 0.228639654 4.49217895 0.228639654 8.9843579 0.228639654 8.9843579 7.40712831 1.1256352e-16 7.40712831"></polygon>
    </defs>
    <g id="Symbols" stroke="none" stroke-width="1" fill="none" fill-rule="evenodd">
        <g id="Header_XS" transform="translate(-221.000000, -15.000000)">
            <g id="Page-1-Copy-4" transform="translate(221.000000, 15.192720)">
                <path d="M13.9905402,21.4433542 C13.7762682,21.3789322 13.618121,21.336765 13.4245528,21.2498538 C13.3739158,21.2273647 13.1903253,21.131083 13.1903253,21.131083 L12.4387519,23.219294 L13.072588,23.312296 L13.1174878,23.3207294 C13.1903253,23.3371277 13.2574256,23.3539946 13.3210337,23.3715642 L13.4929003,23.4195879 L14.1723846,21.4981715 L13.9905402,21.4433542 Z" id="Fill-1" fill="#FFFFFF"></path>
                <g id="Group-5" transform="translate(8.979968, 23.666078)">
                    <mask id="mask-2" fill="white">
                        <use xlink:href="#path-1"></use>
                    </mask>
                    <g id="Clip-4"></g>
                    <path d="M4.33605223,0.25876574 C4.22779373,0.221049568 4.11753968,0.192001087 4.00628786,0.166935059 L3.53309345,0.0975935247 C3.45701317,0.0922055 3.38018456,0.0893943567 3.30385483,0.0893943567 C2.40111864,0.0893943567 1.50736241,0.461636581 0.922916179,1.12951738 C0.101748023,2.06797071 -0.0184837668,3.42598718 0.657508245,4.46892135 C1.2237451,5.34271839 2.24322087,5.85668908 3.30734704,5.85668908 C3.49692414,5.85668908 3.6879979,5.84029075 3.87807388,5.80679129 C5.26797332,5.56198756 6.26749362,4.41363553 6.35255387,3.11348175 L6.33983224,2.67072669 C6.20637995,1.58585964 5.44682435,0.644595157 4.33605223,0.25876574" id="Fill-3" fill="#FFFFFF" mask="url(#mask-2)"></path>
                </g>
                <path d="M15.8778051,26.9530779 L15.8488697,27.1931964 L24.2668411,27.1931964 L24.2291751,26.9233266 C24.2236873,26.8879531 24.2177007,26.8525795 24.2149568,26.817206 L24.2134602,26.7972937 L24.216204,26.1912581 L15.8770568,26.1912581 L15.8935201,26.7654341 L15.8947673,26.7804269 L15.8927718,26.811818 C15.8897784,26.8596074 15.8835423,26.9062255 15.8778051,26.9530779" id="Fill-6" fill="#FFFFFF"></path>
                <path d="M28.883218,23.8431569 C28.5499614,23.7274315 28.2002415,23.6719115 27.8522678,23.6719115 C26.9490327,23.6719115 26.0547776,24.0457935 25.4700819,24.7139086 C25.0612439,25.1812611 24.8265176,25.7523918 24.7768783,26.3368753 L24.7746333,26.7793961 C24.8085576,27.2226197 24.9497427,27.660221 25.2044245,28.0533125 C25.7706614,28.9271096 26.7903866,29.4410803 27.8545128,29.4410803 C28.0440899,29.4410803 28.2349142,29.4246819 28.4252396,29.3911825 C29.8508095,29.1400537 30.8687886,27.9385242 30.9072029,26.5969061 C30.9086996,26.5833189 30.9096973,26.5699659 30.9096973,26.5573158 C30.8924857,25.3473529 30.0962619,24.2643599 28.883218,23.8431569" id="Fill-8" fill="#FFFFFF"></path>
                <g id="Group-12" transform="translate(0.000000, 0.005622)">
                    <mask id="mask-4" fill="white">
                        <use xlink:href="#path-3"></use>
                    </mask>
                    <g id="Clip-11"></g>
                    <path d="M7.15568725,2.84651685 C6.85361112,2.2521943 6.30633198,2.07392096 6.30084422,2.07228113 C5.08780025,1.68973138 2.06853556,0.654996387 1.07649857,0.314848049 L0.984453902,0.283456949 C0.878190951,0.247146348 0.776916871,0.228639654 0.682876654,0.228639654 C0.46037301,0.228639654 0.27329035,0.334057528 0.182243455,0.51045677 L0.157548544,0.558480468 C0.120880343,0.62875905 0.0862076898,0.695289441 0.0445506175,0.792742409 C-0.0185585999,0.941264479 -0.0145675031,1.10946455 0.0555261335,1.25447269 C0.125370327,1.39901231 0.257076519,1.51216083 0.416969833,1.56510403 C1.3149666,1.86191391 4.34994624,2.86783468 5.77177445,3.37196638 C5.82690148,3.40687141 5.9576099,3.5509425 6.02795298,3.66573085 C6.31082196,4.12605557 7.1886138,5.80899335 8.00653919,7.40712831 C8.05443235,7.30405306 8.12128322,7.16490147 8.20808958,6.99061058 C8.25772884,6.89128352 8.31185809,6.78375729 8.37521675,6.66123829 L8.5725266,6.27962559 L8.57951102,6.26580414 L8.9843579,6.26556988 C8.31884251,5.03264928 7.38268088,3.29325437 7.15568725,2.84651685" id="Fill-10" fill="#FFFFFF" mask="url(#mask-4)"></path>
                </g>
                <g id="Group-15" transform="translate(8.481081, 6.799219)" fill="#FFFFFF">
                    <path d="M27.555854,3.88581995 C27.3158893,2.03819602 26.0305067,1.01751674 24.6069324,0.463721512 C23.8790561,0.180498826 23.11975,0.142079867 22.227241,0.14840494 C21.7088973,0.152153131 18.1313779,0.172768182 15.9537358,0.172768182 C15.8661811,0.172768182 15.7801231,0.176516373 15.6960606,0.183309969 C11.852385,0.176984896 7.5913903,0.167614419 6.31448878,0.167614419 L6.26210564,0.167614419 C5.71183317,0.167614419 1.59601465,0.173705229 0.567309459,0.174642277 C0.251264485,0.786065943 0.120057179,1.09576023 0.120057179,1.09576023 C0.725706111,3.98959799 2.02231367,8.77580371 2.71801172,11.0551724 C2.96770471,11.8732151 3.64818671,12.8671885 4.2668067,13.2787867 C5.01513734,13.7765934 6.03361535,14.0345158 7.44721193,14.0345158 C9.56174487,14.0345158 11.5188789,14.0277222 13.7486548,14.024911 C15.8716688,14.0223341 22.9371573,14.0092155 25.4271028,14.0038274 C25.7364128,14.0031247 25.8232191,13.9159792 25.8718606,13.7480134 C25.89456,13.6910878 25.9102749,13.6240888 25.9257404,13.5444398 C26.2597453,11.8191006 27.1771987,7.12449128 27.3727625,6.17783878 C27.5476224,5.33238743 27.6444065,4.56869351 27.555854,3.88581995" id="Fill-13"></path>
                </g>
            </g>
        </g>
    </g>
</svg>