<?xml version="1.0" encoding="UTF-8"?>
<svg width="57px" height="30px" viewBox="0 0 57 30" version="1.1" xmlns="http://www.w3.org/2000/svg" xmlns:xlink="http://www.w3.org/1999/xlink">
    <!-- Generator: Sketch 41.2 (35397) - http://www.bohemiancoding.com/sketch -->
    <title>Logo Copy 2</title>
    <desc>Created with Sketch.</desc>
    <defs>
        <rect id="path-1" x="0" y="0" width="57" height="30"></rect>
    </defs>
    <g id="Symbols" stroke="none" stroke-width="1" fill="none" fill-rule="evenodd">
        <g id="Header_XS" transform="translate(-19.000000, -13.000000)">
            <g id="Logo-Copy-2" transform="translate(19.000000, 13.000000)">
                <mask id="mask-2" fill="white">
                    <use xlink:href="#path-1"></use>
                </mask>
                <use id="Mask" fill="#D8D8D8" xlink:href="#path-1"></use>
                <g mask="url(#mask-2)" id="Page-1">
                    <g transform="translate(-9.000000, -7.000000)">
                        <g>
                            <path d="M69.5044295,46.4523624 C69.5044295,46.4523624 28.9924228,46.500858 15.4884205,46.5174081 C5.73906019,46.5289547 -1.58884572,38.0091236 0.297322915,28.8546158 C1.75799765,21.7665597 6.1392175,0.501236722 6.1392175,0.501236722 C6.15208688,0.440424772 6.20798826,0.39616291 6.2731395,0.39616291 L60.1974541,0.385001223 C69.9435971,0.383076794 77.2614488,8.90483235 75.3712585,18.0547215 L69.5044295,46.4523624 Z" id="Fill-1" fill="#A01127"></path>
                            <path d="M12.4397044,31.9038005 C12.4098434,31.8877593 12.3930127,31.8815499 12.3930127,31.8815499" id="Fill-4" fill="#FFFFFF"></path>
                            <path d="M30.659088,16.124173 C31.111125,13.9434103 30.659088,12.9611818 29.6122443,12.9611818 C28.5658028,12.9611818 27.7654882,13.9434103 27.3138533,16.124173 C26.8417079,18.4223258 27.2933428,19.0904875 28.3808055,19.0904875 C29.3661174,19.0904875 30.1873448,18.4223258 30.659088,16.124173 M24.6249571,16.1634313 C25.2816977,12.8237776 26.7182423,10.8400764 29.8382628,10.8400764 C33.0198151,10.8400764 34.0051271,12.7845193 33.3278759,16.124173 C32.6506247,19.4634418 31.3162308,21.1923486 28.1551891,21.1923486 C24.9531263,21.1923486 23.9267932,19.5027002 24.6249571,16.1634313" id="Fill-6" fill="#FFFFFF"></path>
                            <path d="M45.1666205,13.1486212 C44.8718312,13.0358497 44.2625465,12.9607969 43.9090406,12.9607969 C42.9462501,12.9607969 42.0719365,13.772521 41.5217705,16.4990517 C41.0697335,18.7556369 41.3858377,19.0866387 42.1917826,19.0866387 C42.9965211,19.0866387 43.6235013,18.8041325 44.0952445,18.3719058 L45.1666205,13.1486212 Z M50.1004194,19.0481501 C49.2160516,19.7440235 47.74854,21.181187 45.8619692,21.181187 C45.2727928,21.181187 44.4584023,20.6130956 44.1451133,19.7451782 C43.2836692,20.3990991 42.2830748,21.181187 41.0890376,21.181187 C39.3014001,21.181187 38.1813618,20.2974893 38.9474921,16.4801923 C39.7727412,12.4935456 41.5016621,10.8396915 43.8398677,10.8396915 C45.1955766,10.8396915 46.9840183,11.1595316 48.064242,11.5732838 L46.7994232,17.7507002 C46.6618816,18.4465737 46.6868161,19.1878636 47.217678,19.1878636 C47.8068544,19.1878636 48.528344,18.4277142 49.2554641,17.9577687 L50.1004194,19.0481501 Z" id="Fill-8" fill="#FFFFFF"></path>
                            <path d="M56.6523418,11.356901 C55.9477432,11.1471383 54.4239281,10.8399994 53.0489152,10.8399994 C51.2230718,10.8399994 49.8187006,11.5651242 49.4241736,13.1993491 C49.032864,14.8736022 49.8975255,15.8900855 51.6248377,16.679871 L52.2164271,16.9415934 C53.1579027,17.3757445 53.4732026,18.0966355 53.3151505,18.6412489 C53.1772068,19.0942594 52.86432,19.2428253 52.292839,19.2428253 C51.4989591,19.2428253 50.2558573,18.4080081 49.255263,17.9576918 L48.4103077,19.5668991 C48.5209039,19.6184738 50.7320244,21.18111 52.6278451,21.18111 C54.2791475,21.18111 55.3525343,20.4182664 55.712877,19.0188218 C56.2356956,16.9912436 54.985757,15.8335073 53.4337901,15.1187744 L52.8446137,14.8358834 C51.9011273,14.4040416 51.8315522,13.7735987 51.9103771,13.3610012 C51.9892021,12.9838131 52.3024911,12.7405653 53.1474464,12.7405653 C54.0072819,12.7405653 55.1727652,12.9445548 55.8729399,13.1027428 C56.5312892,13.1108254 56.664809,11.3592103 56.6523418,11.356901" id="Fill-10" fill="#FFFFFF"></path>
                            <path d="M24.66075,17.6947378 C24.6116855,17.7301473 23.036795,19.1869399 22.5851602,19.1869399 C22.075211,19.1869399 22.1540359,18.4683582 22.3313921,17.6785726 C22.3313921,17.6785726 23.6311996,11.2148012 24.1640724,8.56293833 C24.254158,8.11377665 24.3225266,7.77392253 24.3587218,7.59341111 C24.3587218,7.59187157 24.3591239,7.59033202 24.3595261,7.58917736 C24.2823098,7.58917736 24.2054957,7.59110179 24.1298881,7.59341111 C22.8489825,7.6315148 21.7916824,7.95789792 21.5954244,8.50405081 C21.5853702,8.53176258 21.5749138,8.55947436 21.5696856,8.58834079 C21.3621668,9.69488734 20.6893395,12.926773 20.6893395,12.926773 L17.1389991,12.9190753 C17.1389991,12.9190753 17.6642307,10.1952388 17.9851609,8.61297348 C18.1448216,7.82934608 16.5675181,7.58840759 15.6015102,7.58840759 C15.5777823,7.69232675 13.1253609,19.8627993 13.1253609,19.8627993 C13.046536,20.4031789 13.9691097,20.8300172 15.5182614,20.8346358 L16.7231572,14.9716711 L20.2678673,14.968592 L19.695582,18.0788538 C19.2644578,20.2603863 19.9702629,21.1814179 21.4043945,21.1814179 C22.7870486,21.1814179 24.2376691,20.1183634 25.0536683,19.5452685 C25.3050234,19.3705304 25.5093248,19.2081086 25.6573227,19.0853301 L24.66075,17.6947378 Z" id="Fill-12" fill="#FFFFFF"></path>
                            <path d="M38.5390904,8.98631266 C38.698349,8.20268526 37.0108514,7.95828281 36.0448435,7.95558861 C36.0207134,8.05950776 35.8095751,9.11332496 35.8095751,9.11332496 C35.7291415,9.65331968 36.763518,10.0824673 38.3126697,10.0909348 C38.3126697,10.0909348 38.3532887,9.89926168 38.5390904,8.98631266" id="Fill-14" fill="#FFFFFF"></path>
                            <path d="M39.3233987,17.281255 C39.2023461,17.3120459 39.0696306,17.3451461 38.9216327,17.3874835 C38.3179783,17.5595274 37.4975553,17.8497313 36.6127854,18.3331478 C36.6127854,18.3331478 37.7107044,13.1210249 37.8860497,12.1722815 C38.0497322,11.2839652 36.0240112,11.1550284 35.4971709,11.1619564 C35.4899319,11.1804309 33.6065784,20.4958209 33.6065784,20.4958209 C33.2393989,22.3513551 32.7017001,23.3420511 30.9277364,23.7877488 C31.0886036,24.0752584 31.5808574,24.7949948 32.7286453,24.7949948 C34.1993743,24.7949948 35.6584403,23.1942549 36.1619549,20.4958209 C37.0933763,19.7999474 38.1675674,19.3188402 38.9139915,19.05019 C39.1754008,18.955893 39.3973977,18.8873833 39.5598736,18.8423517 L39.3233987,17.281255 Z" id="Fill-16" fill="#FFFFFF"></path>
                            <path d="M65.0790113,26.7093011 C64.3760214,26.4999232 62.8558258,26.1935542 61.4844324,26.1935542 C59.6630128,26.1935542 58.2626633,26.9171394 57.8689407,28.5467457 C57.4784354,30.2171499 58.3410861,31.230939 60.0639745,32.0188001 L60.6539551,32.2801375 C61.5930178,32.7127491 61.9075133,33.4321006 61.7502655,33.9751744 C61.612724,34.4270303 61.3002394,34.5752113 60.7303671,34.5752113 C59.9380958,34.5752113 58.3595858,33.579127 57.3618067,33.1299653 L56.5188622,34.7349389 C56.6294584,34.7865136 59.173172,36.5084925 61.0645688,36.5084925 C62.7110453,36.5084925 63.7816169,35.7475733 64.1415574,34.3515927 C64.6631695,32.3294029 63.4164482,31.1743608 61.868503,30.4619372 L61.2809353,30.1794311 C60.3394597,29.7487439 60.2702867,29.1198406 60.3487095,28.7083977 C60.4275345,28.3319794 60.739617,28.0895014 61.5829636,28.0895014 C62.4403861,28.0895014 63.6030542,28.293106 64.3012181,28.4509091 C64.9579587,28.4586069 65.0910764,26.7116104 65.0790113,26.7093011" id="Fill-18" fill="#FFFFFF"></path>
                            <path d="M26.7269694,29.1055998 C26.8645109,28.4474452 26.5311135,28.0152185 25.8430038,28.0152185 C24.9783422,28.0152185 24.0943766,28.6776069 23.662448,30.614352 C25.4504876,30.4827211 26.5311135,30.0835945 26.7269694,29.1055998 L26.7269694,29.1055998 Z M31.4826078,33.7734943 C30.2053217,34.8265417 27.2771354,36.4934819 24.506599,36.4934819 C21.4416755,36.4934819 20.1840957,34.9019793 21.0097469,30.971526 C21.658042,28.0005928 23.0527611,26.2097194 25.9218287,26.2097194 C28.7904941,26.2097194 29.3796705,27.8458687 29.2228249,29.0494065 C28.9867522,30.910714 27.4351875,32.0622922 23.3286485,32.4194662 C23.1516945,33.7734943 23.4850919,34.5752113 25.13559,34.5752113 C27.218821,34.5752113 29.2228249,33.4163203 30.6573587,32.5510971 L31.4826078,33.7734943 Z" id="Fill-20" fill="#FFFFFF"></path>
                            <path d="M54.242872,29.1055998 C54.3804135,28.4474452 54.0466139,28.0152185 53.3589064,28.0152185 C52.4942448,28.0152185 51.6102793,28.6776069 51.1783507,30.614352 C52.9659881,30.4827211 54.0466139,30.0835945 54.242872,29.1055998 L54.242872,29.1055998 Z M58.1800982,34.350438 C56.90241,35.4034855 54.793038,36.4934819 52.0225016,36.4934819 C48.9575781,36.4934819 47.6999983,34.9019793 48.5256495,30.971526 C49.1739446,28.0005928 50.5686637,26.2097194 53.4373292,26.2097194 C56.3063968,26.2097194 56.8955731,27.8458687 56.7383254,29.0494065 C56.5026548,30.910714 54.9510901,32.0622922 50.8445511,32.4194662 C50.6671949,33.7734943 51.0009945,34.5752113 52.6514926,34.5752113 C54.7347236,34.5752113 55.9203153,33.993264 57.3548491,33.1280409 L58.1800982,34.350438 Z" id="Fill-22" fill="#FFFFFF"></path>
                            <path d="M43.909845,33.710527 C43.4389061,34.1042651 42.7713069,34.4795287 42.0638932,34.4795287 C41.2583503,34.4795287 40.8750841,33.8679452 41.3287298,31.5732564 C41.8977977,28.7905323 42.5653968,28.249383 43.6476313,28.249383 C44.038941,28.249383 44.6084111,28.3248206 44.9044068,28.437977 L43.909845,33.710527 Z M49.0290434,33.2475094 C48.9872179,33.2736816 48.9478054,33.299469 48.9059799,33.3256412 C48.2255114,33.7451667 47.5591188,34.5006974 47.0045289,34.5006974 C46.4748735,34.5006974 46.4258089,34.0099681 46.5637526,33.3333389 C46.5637526,33.3333389 48.1442735,25.4639647 48.4503234,23.9779208 C48.604756,23.2273936 46.9755728,22.9602829 46.0642598,22.9737539 L45.6902434,24.8050403 C45.4537685,25.9323707 45.3552373,26.4454234 45.3552373,26.4454234 L45.3154227,26.4454234 C44.8448859,26.3130227 44.0590494,26.2187257 43.5293939,26.2187257 C42.0506216,26.2187257 40.9096706,26.6340174 40.0623023,27.8741193 C39.6356019,28.4899366 39.2833026,29.4883302 38.997361,30.5590824 C38.918536,30.8585235 38.8421241,31.176824 38.7733533,31.5166782 C38.0068208,35.3158855 39.0970987,36.493251 40.8839318,36.493251 C42.0835994,36.493251 43.182725,35.9109188 43.8700303,35.3070331 L43.9295512,35.3070331 C44.2251448,36.1915006 44.9229066,36.493251 45.7481556,36.493251 C47.2341669,36.493251 48.422976,35.4313512 49.2655183,34.7993688 C49.4822869,34.6365621 49.6773385,34.4787589 49.8546946,34.337121 L49.0290434,33.2475094 Z" id="Fill-24" fill="#FFFFFF"></path>
                            <path d="M14.9132799,23.86284 C14.5999909,25.4089261 13.7622746,29.8170227 12.8384944,34.1200454 C13.4875938,34.2462879 16.4202039,34.0549997 17.2036275,30.1895921 C17.9122478,26.6940596 18.0924191,25.7972758 18.4978046,23.8586062 C18.5669775,23.5279894 19.2566959,22.8902337 21.2739714,22.8898488 C21.2663302,22.9256432 20.5384058,26.5955289 19.8052533,30.1807397 C18.6856171,35.6542 14.6683595,36.2423055 12.0771901,36.1245304 C11.7892377,36.1118292 10.4258876,36.0017519 10.1130008,35.4756131 C9.97948097,35.2504549 10.0518712,35.0907273 10.1423591,34.6407958 C10.6265695,32.2352599 12.1491782,24.714977 12.5207815,22.8910034 C14.5215681,22.8910034 14.9788333,23.5210614 14.9132799,23.86284" id="Fill-26" fill="#FFFFFF"></path>
                            <path d="M40.7372611,27.7402946 C40.2092143,28.5089114 39.4362471,29.295233 38.5442381,29.7674879 C37.7672493,30.1789307 37.3465814,30.1196583 37.3465814,30.1196583 C37.613621,29.8537023 37.9047908,29.4022313 37.9968873,28.9076531 C38.3230457,27.1510345 36.9375764,26.4062805 36.2768141,26.2557902 C35.2380138,26.0190855 33.8449033,26.973987 33.3240955,27.4743385 L33.2645746,27.4743385 C33.2730202,26.9485846 32.3118383,26.5540767 30.8668481,26.5540767 C30.6472643,27.6121276 29.6144965,32.7761398 29.6144965,32.7761398 C29.6144965,32.7761398 29.2107197,34.7944807 29.1343077,35.1678199 C29.0985147,36.0161081 31.0333457,36.1481239 31.5276104,36.1315739 C31.7890197,34.8414368 32.7747338,29.925291 32.7747338,29.925291 C33.0538385,29.4930643 33.6044067,28.0104844 34.8346391,28.0104844 C35.5689981,28.0104844 35.6840182,28.5550977 35.6598881,28.9553789 C35.6341494,29.386451 35.3703271,29.7894263 34.8322261,30.0446056 C34.3383636,30.279001 33.8867288,30.3163349 33.5002452,30.3790713 L33.6309498,31.9136108 C34.7622488,31.687298 35.8468963,31.7769764 36.7602202,31.7900625 C39.7398841,31.8331697 40.2450073,30.4391135 41.2777751,29.0188851 L40.7372611,27.7402946 Z" id="Fill-28" fill="#FFFFFF"></path>
                        </g>
                    </g>
                </g>
            </g>
        </g>
    </g>
</svg>