<?xml version="1.0" encoding="UTF-8"?>
<svg width="14px" height="9px" viewBox="0 0 14 9" version="1.1" xmlns="http://www.w3.org/2000/svg" xmlns:xlink="http://www.w3.org/1999/xlink">
    <!-- Generator: Sketch 41.2 (35397) - http://www.bohemiancoding.com/sketch -->
    <title>Page 1 Copy 8</title>
    <desc>Created with Sketch.</desc>
    <defs></defs>
    <g id="Symbols" stroke="none" stroke-width="1" fill="none" fill-rule="evenodd">
        <g id="Footer_XS" transform="translate(-20.000000, -136.000000)" fill="#FFFFFF">
            <path d="M20.602,136 L21.0943333,136.491167 L27.028,142.424833 L32.9616667,136.491167 L33.4528333,136 L20.602,136 Z M20,136 L20,144.831667 L33.398,144.831667 L32.9068333,144.339333 L29.352,140.7845 L27.1913333,142.945167 L27.028,143.135333 L26.8635,142.945167 L24.676,140.757667 L21.0943333,144.339333 L20.602,144.831667 L20,144.831667 L20,144.722 L20.4923333,144.257667 L24.3213333,140.428667 L20.4923333,136.600833 L20,136.109667 L20,136 Z M33.5088333,136.655667 L29.7078333,140.456667 L33.5088333,144.257667 L34,144.75 L34,136.163333 L33.5088333,136.655667 Z M33.398,144.831667 L34,144.831667 L33.398,144.831667 Z" id="Page-1-Copy-8"></path>
        </g>
    </g>
</svg>